{
  "color": {
    "color": {
      "black": {
        "description": "",
        "type": "color",
        "value": "#333333ff",
        "blendMode": "normal",
        "extensions": {
          "org.lukasoppermann.figmaDesignTokens": {
            "styleId": "S:cdcd52c38582355965cf227042565d1381a4e26b,",
            "exportKey": "color"
          }
        }
      },
      "white": {
        "description": "",
        "type": "color",
        "value": "#ffffffff",
        "blendMode": "normal",
        "extensions": {
          "org.lukasoppermann.figmaDesignTokens": {
            "styleId": "S:2f0bf0453545b32c910f5b03466cf6c6b6f36c5f,",
            "exportKey": "color"
          }
        }
      },
      "gray 1": {
        "description": "",
        "type": "color",
        "value": "#4f4f4fff",
        "blendMode": "normal",
        "extensions": {
          "org.lukasoppermann.figmaDesignTokens": {
            "styleId": "S:789e28fc2dcd163d76b4d096ef0c5c04be9eefb7,",
            "exportKey": "color"
          }
        }
      },
      "gray 2": {
        "description": "",
        "type": "color",
        "value": "#828282ff",
        "blendMode": "normal",
        "extensions": {
          "org.lukasoppermann.figmaDesignTokens": {
            "styleId": "S:e1e2784a007be9ad7b085d5676b6d4937f7ff193,",
            "exportKey": "color"
          }
        }
      },
      "gray 3": {
        "description": "",
        "type": "color",
        "value": "#bdbdbdff",
        "blendMode": "normal",
        "extensions": {
          "org.lukasoppermann.figmaDesignTokens": {
            "styleId": "S:ef0a211dfd1a6c2c3f4299f93994e188d3cea12b,",
            "exportKey": "color"
          }
        }
      },
      "gray 4": {
        "description": "",
        "type": "color",
        "value": "#e0e0e0ff",
        "blendMode": "normal",
        "extensions": {
          "org.lukasoppermann.figmaDesignTokens": {
            "styleId": "S:3aa1bbbfc69e1e0185efe97d242c8d2f3a486c7f,",
            "exportKey": "color"
          }
        }
      },
      "gray 5": {
        "description": "",
        "type": "color",
        "value": "#f2f2f2ff",
        "blendMode": "normal",
        "extensions": {
          "org.lukasoppermann.figmaDesignTokens": {
            "styleId": "S:43f263367a1ae61f71f8c98b9005794c9d416cba,",
            "exportKey": "color"
          }
        }
      },
      "red": {
        "description": "",
        "type": "color",
        "value": "#e81724ff",
        "blendMode": "normal",
        "extensions": {
          "org.lukasoppermann.figmaDesignTokens": {
            "styleId": "S:792d79e577e9248cb0a1bbfec8bcb1ae387ffa12,",
            "exportKey": "color"
          }
        }
      },
      "orange": {
        "description": "",
        "type": "color",
        "value": "#f2994aff",
        "blendMode": "normal",
        "extensions": {
          "org.lukasoppermann.figmaDesignTokens": {
            "styleId": "S:22bf3b295ae63e361e7b5281e62e6c37b7c0a7e9,",
            "exportKey": "color"
          }
        }
      },
      "yellow": {
        "description": "",
        "type": "color",
        "value": "#f2c94cff",
        "blendMode": "normal",
        "extensions": {
          "org.lukasoppermann.figmaDesignTokens": {
            "styleId": "S:94aedc7eff19ba5ff20a54be5e89703c267b493b,",
            "exportKey": "color"
          }
        }
      },
      "blue 1": {
        "description": "",
        "type": "color",
        "value": "#2f80edff",
        "blendMode": "normal",
        "extensions": {
          "org.lukasoppermann.figmaDesignTokens": {
            "styleId": "S:8c259c8a65053333a253c9c2ccc851b9284f02cd,",
            "exportKey": "color"
          }
        }
      },
      "blue 2": {
        "description": "",
        "type": "color",
        "value": "#2d9cdbe6",
        "blendMode": "normal",
        "extensions": {
          "org.lukasoppermann.figmaDesignTokens": {
            "styleId": "S:2e8e91444aa5f8f08889b18b66167a1dfb389a2b,",
            "exportKey": "color"
          }
        }
      },
      "blue 3": {
        "description": "",
        "type": "color",
        "value": "#56ccf2cc",
        "blendMode": "normal",
        "extensions": {
          "org.lukasoppermann.figmaDesignTokens": {
            "styleId": "S:3b8b3a2e7d4df7f549715c3da603260ddf086e69,",
            "exportKey": "color"
          }
        }
      },
      "green 1": {
        "description": "",
        "type": "color",
        "value": "#219653ff",
        "blendMode": "normal",
        "extensions": {
          "org.lukasoppermann.figmaDesignTokens": {
            "styleId": "S:f8fc3799c4ac254d58d67fb57c4a72eb38d74cca,",
            "exportKey": "color"
          }
        }
      },
      "green 2": {
        "description": "",
        "type": "color",
        "value": "#27ae60ff",
        "blendMode": "normal",
        "extensions": {
          "org.lukasoppermann.figmaDesignTokens": {
            "styleId": "S:2df544b86c9f3a90da5b8448438ba1752a36a5dc,",
            "exportKey": "color"
          }
        }
      },
      "green 3": {
        "description": "",
        "type": "color",
        "value": "#6fcf97ff",
        "blendMode": "normal",
        "extensions": {
          "org.lukasoppermann.figmaDesignTokens": {
            "styleId": "S:35d33121cd4e2875e641b32dbff1d94390ff3c08,",
            "exportKey": "color"
          }
        }
      },
      "blue 4": {
        "description": "",
        "type": "color",
        "value": "#56ccf254",
        "blendMode": "normal",
        "extensions": {
          "org.lukasoppermann.figmaDesignTokens": {
            "styleId": "S:d9a3fd224e1347831ea0d9358ca8c703d4c27221,",
            "exportKey": "color"
          }
        }
      }
    }
  },
  "font": {
    "heading": {
      "l": {
        "type": "custom-fontStyle",
        "value": {
          "fontSize": 48,
          "textDecoration": "none",
          "fontFamily": "Helvetica Neue",
          "fontWeight": 700,
          "fontStyle": "normal",
          "fontStretch": "normal",
          "letterSpacing": 0,
          "lineHeight": 64.8,
          "paragraphIndent": 0,
          "paragraphSpacing": 0,
          "textCase": "none"
        },
        "extensions": {
          "org.lukasoppermann.figmaDesignTokens": {
            "styleId": "S:e4de2e4799b5d94fee8af68a0a4ad508d3892914,",
            "exportKey": "font"
          }
        }
      },
      "m": {
        "type": "custom-fontStyle",
        "value": {
          "fontSize": 40,
          "textDecoration": "none",
          "fontFamily": "Helvetica Neue",
          "fontWeight": 400,
          "fontStyle": "normal",
          "fontStretch": "normal",
          "letterSpacing": 0,
          "lineHeight": 54,
          "paragraphIndent": 0,
          "paragraphSpacing": 0,
          "textCase": "none"
        },
        "extensions": {
          "org.lukasoppermann.figmaDesignTokens": {
            "styleId": "S:84c4ab1fed43e55e1e64615f1f503c063a6dafa2,",
            "exportKey": "font"
          }
        }
      },
      "s": {
        "type": "custom-fontStyle",
        "value": {
          "fontSize": 32,
          "textDecoration": "none",
          "fontFamily": "Helvetica Neue",
          "fontWeight": 400,
          "fontStyle": "normal",
          "fontStretch": "normal",
          "letterSpacing": 0,
          "lineHeight": 38.4,
          "paragraphIndent": 0,
          "paragraphSpacing": 0,
          "textCase": "none"
        },
        "extensions": {
          "org.lukasoppermann.figmaDesignTokens": {
            "styleId": "S:8281e802c3cda4e80fa9a1bfb5a0b8286ed08c15,",
            "exportKey": "font"
          }
        }
      },
      "xs": {
        "type": "custom-fontStyle",
        "value": {
          "fontSize": 26,
          "textDecoration": "none",
          "fontFamily": "Helvetica Neue",
          "fontWeight": 400,
          "fontStyle": "normal",
          "fontStretch": "normal",
          "letterSpacing": 0,
          "lineHeight": 31.2,
          "paragraphIndent": 0,
          "paragraphSpacing": 1.25,
          "textCase": "none"
        },
        "extensions": {
          "org.lukasoppermann.figmaDesignTokens": {
            "styleId": "S:5322ef33e04b725ffda9cc862f2cc74928501d1e,",
            "exportKey": "font"
          }
        }
      }
    },
    "body": {
      "l": {
        "type": "custom-fontStyle",
        "value": {
          "fontSize": 20,
          "textDecoration": "none",
          "fontFamily": "Helvetica Neue",
          "fontWeight": 400,
          "fontStyle": "normal",
          "fontStretch": "normal",
          "letterSpacing": 0,
          "lineHeight": 24,
          "paragraphIndent": 0,
          "paragraphSpacing": 1,
          "textCase": "none"
        },
        "extensions": {
          "org.lukasoppermann.figmaDesignTokens": {
            "styleId": "S:eee4c6554cd3f762dacdde3547d1dc4dda224c6f,",
            "exportKey": "font"
          }
        }
      },
      "m": {
        "type": "custom-fontStyle",
        "value": {
          "fontSize": 18,
          "textDecoration": "none",
          "fontFamily": "Helvetica Neue",
          "fontWeight": 700,
          "fontStyle": "normal",
          "fontStretch": "normal",
          "letterSpacing": 0,
          "lineHeight": 18,
          "paragraphIndent": 0,
          "paragraphSpacing": 1,
          "textCase": "uppercase"
        },
        "extensions": {
          "org.lukasoppermann.figmaDesignTokens": {
            "styleId": "S:1a21052d860ba8796ea4ea08bf81ac251d0d2384,",
            "exportKey": "font"
          }
        }
      },
      "s": {
        "type": "custom-fontStyle",
        "value": {
          "fontSize": 16,
          "textDecoration": "none",
          "fontFamily": "Helvetica Neue",
          "fontWeight": 400,
          "fontStyle": "normal",
          "fontStretch": "normal",
          "letterSpacing": 0,
          "lineHeight": 21.6,
          "paragraphIndent": 0,
          "paragraphSpacing": 1,
          "textCase": "none"
        },
        "extensions": {
          "org.lukasoppermann.figmaDesignTokens": {
            "styleId": "S:47601e8add1f52e98b82ff355e961f97c5dd8d77,",
            "exportKey": "font"
          }
        }
      },
      "microcopy": {
        "type": "custom-fontStyle",
        "value": {
          "fontSize": 12,
          "textDecoration": "none",
          "fontFamily": "Helvetica Neue",
          "fontWeight": 400,
          "fontStyle": "normal",
          "fontStretch": "normal",
          "letterSpacing": 0,
          "lineHeight": 14.4,
          "paragraphIndent": 0,
          "paragraphSpacing": 1,
          "textCase": "none"
        },
        "extensions": {
          "org.lukasoppermann.figmaDesignTokens": {
            "styleId": "S:5467b2ebb67a3957701d8259e55622c52c1e3a9b,",
            "exportKey": "font"
          }
        }
      }
    }
  },
  "effect": {
    "shadow soft": {
      "description": null,
      "type": "custom-shadow",
      "value": {
        "shadowType": "dropShadow",
        "radius": 5,
        "color": "#c4c4c4ff",
        "offsetX": 0,
        "offsetY": 0,
        "spread": 0
      },
      "extensions": {
        "org.lukasoppermann.figmaDesignTokens": {
          "styleId": "S:1e9371916dff0ba8384d42509d8d267cd8da4ae7,",
          "exportKey": "effect"
        }
      }
    },
    "shadow medium": {
      "description": null,
      "type": "custom-shadow",
      "value": {
        "shadowType": "dropShadow",
        "radius": 5,
        "color": "#00000080",
        "offsetX": 0,
        "offsetY": 0,
        "spread": 0
      },
      "extensions": {
        "org.lukasoppermann.figmaDesignTokens": {
          "styleId": "S:bc7589eaae78c95a12fa8b697abf06d9c6a91865,",
          "exportKey": "effect"
        }
      }
    },
    "shadow deep": {
      "description": null,
      "type": "custom-shadow",
      "value": {
        "shadowType": "dropShadow",
        "radius": 3,
        "color": "#c4c4c4bf",
        "offsetX": 3,
        "offsetY": 3,
        "spread": 0
      },
      "extensions": {
        "org.lukasoppermann.figmaDesignTokens": {
          "styleId": "S:f6f933d59b8258191797c3b8fc5935640532d897,",
          "exportKey": "effect"
        }
      }
    },
    "shadow deep (multiple)": {
      "0": {
        "type": "custom-shadow",
        "value": {
          "shadowType": "dropShadow",
          "radius": 4,
          "color": "#0000002b",
          "offsetX": 0,
          "offsetY": 4,
          "spread": 0
        }
      },
      "1": {
        "type": "custom-shadow",
        "value": {
          "shadowType": "dropShadow",
          "radius": 20,
          "color": "#0000001a",
          "offsetX": 0,
          "offsetY": 4,
          "spread": 0
        }
      },
      "description": null,
      "extensions": {
        "org.lukasoppermann.figmaDesignTokens": {
          "styleId": "S:1344a3fa0b60b08f1f4fc1584cb3fbfa7155b194,",
          "exportKey": "effect"
        }
      }
    }
  },
  "typography": {
    "heading": {
      "l": {
        "fontSize": {
          "type": "dimension",
          "value": 48
        },
        "textDecoration": {
          "type": "string",
          "value": "none"
        },
        "fontFamily": {
          "type": "string",
          "value": "Helvetica Neue"
        },
        "fontWeight": {
          "type": "number",
          "value": 700
        },
        "fontStyle": {
          "type": "string",
          "value": "normal"
        },
        "fontStretch": {
          "type": "string",
          "value": "normal"
        },
        "letterSpacing": {
          "type": "dimension",
          "value": 0
        },
        "lineHeight": {
          "type": "dimension",
          "value": 64.8
        },
        "paragraphIndent": {
          "type": "dimension",
          "value": 0
        },
        "paragraphSpacing": {
          "type": "dimension",
          "value": 0
        },
        "textCase": {
          "type": "string",
          "value": "none"
        }
      },
      "m": {
        "fontSize": {
          "type": "dimension",
          "value": 40
        },
        "textDecoration": {
          "type": "string",
          "value": "none"
        },
        "fontFamily": {
          "type": "string",
          "value": "Helvetica Neue"
        },
        "fontWeight": {
          "type": "number",
          "value": 400
        },
        "fontStyle": {
          "type": "string",
          "value": "normal"
        },
        "fontStretch": {
          "type": "string",
          "value": "normal"
        },
        "letterSpacing": {
          "type": "dimension",
          "value": 0
        },
        "lineHeight": {
          "type": "dimension",
          "value": 54
        },
        "paragraphIndent": {
          "type": "dimension",
          "value": 0
        },
        "paragraphSpacing": {
          "type": "dimension",
          "value": 0
        },
        "textCase": {
          "type": "string",
          "value": "none"
        }
      },
      "s": {
        "fontSize": {
          "type": "dimension",
          "value": 32
        },
        "textDecoration": {
          "type": "string",
          "value": "none"
        },
        "fontFamily": {
          "type": "string",
          "value": "Helvetica Neue"
        },
        "fontWeight": {
          "type": "number",
          "value": 400
        },
        "fontStyle": {
          "type": "string",
          "value": "normal"
        },
        "fontStretch": {
          "type": "string",
          "value": "normal"
        },
        "letterSpacing": {
          "type": "dimension",
          "value": 0
        },
        "lineHeight": {
          "type": "dimension",
          "value": 38.4
        },
        "paragraphIndent": {
          "type": "dimension",
          "value": 0
        },
        "paragraphSpacing": {
          "type": "dimension",
          "value": 0
        },
        "textCase": {
          "type": "string",
          "value": "none"
        }
      },
      "xs": {
        "fontSize": {
          "type": "dimension",
          "value": 26
        },
        "textDecoration": {
          "type": "string",
          "value": "none"
        },
        "fontFamily": {
          "type": "string",
          "value": "Helvetica Neue"
        },
        "fontWeight": {
          "type": "number",
          "value": 400
        },
        "fontStyle": {
          "type": "string",
          "value": "normal"
        },
        "fontStretch": {
          "type": "string",
          "value": "normal"
        },
        "letterSpacing": {
          "type": "dimension",
          "value": 0
        },
        "lineHeight": {
          "type": "dimension",
          "value": 31.2
        },
        "paragraphIndent": {
          "type": "dimension",
          "value": 0
        },
        "paragraphSpacing": {
          "type": "dimension",
          "value": 1.25
        },
        "textCase": {
          "type": "string",
          "value": "none"
        }
      }
    },
    "body": {
      "l": {
        "fontSize": {
          "type": "dimension",
          "value": 20
        },
        "textDecoration": {
          "type": "string",
          "value": "none"
        },
        "fontFamily": {
          "type": "string",
          "value": "Helvetica Neue"
        },
        "fontWeight": {
          "type": "number",
          "value": 400
        },
        "fontStyle": {
          "type": "string",
          "value": "normal"
        },
        "fontStretch": {
          "type": "string",
          "value": "normal"
        },
        "letterSpacing": {
          "type": "dimension",
          "value": 0
        },
        "lineHeight": {
          "type": "dimension",
          "value": 24
        },
        "paragraphIndent": {
          "type": "dimension",
          "value": 0
        },
        "paragraphSpacing": {
          "type": "dimension",
          "value": 1
        },
        "textCase": {
          "type": "string",
          "value": "none"
        }
      },
      "m": {
        "fontSize": {
          "type": "dimension",
          "value": 18
        },
        "textDecoration": {
          "type": "string",
          "value": "none"
        },
        "fontFamily": {
          "type": "string",
          "value": "Helvetica Neue"
        },
        "fontWeight": {
          "type": "number",
          "value": 700
        },
        "fontStyle": {
          "type": "string",
          "value": "normal"
        },
        "fontStretch": {
          "type": "string",
          "value": "normal"
        },
        "letterSpacing": {
          "type": "dimension",
          "value": 0
        },
        "lineHeight": {
          "type": "dimension",
          "value": 18
        },
        "paragraphIndent": {
          "type": "dimension",
          "value": 0
        },
        "paragraphSpacing": {
          "type": "dimension",
          "value": 1
        },
        "textCase": {
          "type": "string",
          "value": "uppercase"
        }
      },
      "s": {
        "fontSize": {
          "type": "dimension",
          "value": 16
        },
        "textDecoration": {
          "type": "string",
          "value": "none"
        },
        "fontFamily": {
          "type": "string",
          "value": "Helvetica Neue"
        },
        "fontWeight": {
          "type": "number",
          "value": 400
        },
        "fontStyle": {
          "type": "string",
          "value": "normal"
        },
        "fontStretch": {
          "type": "string",
          "value": "normal"
        },
        "letterSpacing": {
          "type": "dimension",
          "value": 0
        },
        "lineHeight": {
          "type": "dimension",
          "value": 21.6
        },
        "paragraphIndent": {
          "type": "dimension",
          "value": 0
        },
        "paragraphSpacing": {
          "type": "dimension",
          "value": 1
        },
        "textCase": {
          "type": "string",
          "value": "none"
        }
      },
      "microcopy": {
        "fontSize": {
          "type": "dimension",
          "value": 12
        },
        "textDecoration": {
          "type": "string",
          "value": "none"
        },
        "fontFamily": {
          "type": "string",
          "value": "Helvetica Neue"
        },
        "fontWeight": {
          "type": "number",
          "value": 400
        },
        "fontStyle": {
          "type": "string",
          "value": "normal"
        },
        "fontStretch": {
          "type": "string",
          "value": "normal"
        },
        "letterSpacing": {
          "type": "dimension",
          "value": 0
        },
        "lineHeight": {
          "type": "dimension",
          "value": 14.4
        },
        "paragraphIndent": {
          "type": "dimension",
          "value": 0
        },
        "paragraphSpacing": {
          "type": "dimension",
          "value": 1
        },
        "textCase": {
          "type": "string",
          "value": "none"
        }
      }
    }
  }
}